{
    "conversas": [
        {
            "mensagens": ["Qual o tipo de arte mais barata?", "Qual a arte mais barata?", "Qual o menor preço?"],
            "resposta": "As artes mais baratas são as artes de 32 pixels para baixo, pois possuem um valor máximo de 50 reais"
        },
        {
            "mensagens": ["Posso persolizar o tamanho da resolução da arte?", "Posso persolizar o tamanho da arte?"],
            "resposta": "Sim, você pode sugerir um tamanho especifico ao artista que deseja que faça a arte, cabendo a esse aceitar ou não o pedido."
        },
        {
            "mensagens": ["Posso escolher a paleta de cores?", "Posso escolher as cores?"],
            "resposta": "Sim, você pode sugerir ao artista as cores que você deseja que estejam presentes na arte"
        },
        {
            "mensagens": ["Posso cancelar meu pedido?", "Posso cancelar minha encomenda?", "Posso cancelar minha arte?"],
            "resposta": "Você pode cancelar o pedido caso esse não esteja pronto ou já em desenvolvimento após 30% do tempo em relação ao prazo. Você pode ainda entrar em contato com o artista nesse tipo de situação, cabendo a ele cancelar ou não caso esteja em desenvolvimento após 30 % do tempo em relação ao prazo."
        },
        {
            "mensagens": ["Posso mudar meu pedido?", "Posso alterar meu pedido?"],
            "resposta": "Você pode alterar o pedido caso esse não esteja pronto ou já em desenvolvimento após 30% do tempo em relação ao prazo. Você pode ainda entrar em contato com o artista para resolver a situação."
        },
        {
            "mensagens": ["O tema da arte é livre?", "Posso escolher qualquer tema?", "O tema é livre?"],
            "resposta": "Você pode escolher temas desde que esses não sejam ofensivos, racistas, preconceituosos ou pornográficos. Cabe ainda ao artista aceitar ou não o tema."
        },
        {
            "mensagens": ["Quanto tempo demora para a arte ficar pronta?", "Demora muito?", "Quanto tempo demora?"],
            "resposta": "A média de tempo é de 1 semana variando com a demanda para o artista escolhido e tamanho da arte, mas você pode ver também a média de tempo por artista nas infomações desse."
        }
    ]
}